module golang-gin-poc

go 1.13

require (
	github.com/gin-gonic/gin v1.7.4
	github.com/go-playground/validator/v10 v10.9.0
	github.com/golang/protobuf v1.5.2 // indirect
	github.com/json-iterator/go v1.1.12 // indirect
	github.com/mattn/go-isatty v0.0.14 // indirect
	github.com/tpkeeper/gin-dump v1.0.1 // indirect
	github.com/ugorji/go v1.2.6 // indirect
	golang.org/x/crypto v0.0.0-20210921155107-089bfa567519 // indirect
	golang.org/x/sys v0.0.0-20210927094055-39ccf1dd6fa6 // indirect
	golang.org/x/text v0.3.7 // indirect
	google.golang.org/protobuf v1.27.1 // indirect
	gopkg.in/yaml.v2 v2.4.0 // indirect
)
